<?xml version="1.0" encoding="UTF-8" standalone="no"?>
<!-- Created with Inkscape (http://www.inkscape.org/) -->

<svg
   xmlns:dc="http://purl.org/dc/elements/1.1/"
   xmlns:cc="http://creativecommons.org/ns#"
   xmlns:rdf="http://www.w3.org/1999/02/22-rdf-syntax-ns#"
   xmlns:svg="http://www.w3.org/2000/svg"
   xmlns="http://www.w3.org/2000/svg"
   xmlns:sodipodi="http://sodipodi.sourceforge.net/DTD/sodipodi-0.dtd"
   xmlns:inkscape="http://www.inkscape.org/namespaces/inkscape"
   width="210mm"
   height="297mm"
   id="svg2976"
   version="1.1"
   inkscape:version="0.47 r22583"
   sodipodi:docname="ifr.svg">
  <defs
     id="defs2978">
    <inkscape:perspective
       sodipodi:type="inkscape:persp3d"
       inkscape:vp_x="0 : 526.18109 : 1"
       inkscape:vp_y="0 : 1000 : 0"
       inkscape:vp_z="744.09448 : 526.18109 : 1"
       inkscape:persp3d-origin="372.04724 : 350.78739 : 1"
       id="perspective2984" />
    <inkscape:perspective
       id="perspective2994"
       inkscape:persp3d-origin="0.5 : 0.33333333 : 1"
       inkscape:vp_z="1 : 0.5 : 1"
       inkscape:vp_y="0 : 1000 : 0"
       inkscape:vp_x="0 : 0.5 : 1"
       sodipodi:type="inkscape:persp3d" />
    <inkscape:perspective
       id="perspective3979"
       inkscape:persp3d-origin="0.5 : 0.33333333 : 1"
       inkscape:vp_z="1 : 0.5 : 1"
       inkscape:vp_y="0 : 1000 : 0"
       inkscape:vp_x="0 : 0.5 : 1"
       sodipodi:type="inkscape:persp3d" />
    <inkscape:perspective
       id="perspective3783"
       inkscape:persp3d-origin="0.5 : 0.33333333 : 1"
       inkscape:vp_z="1 : 0.5 : 1"
       inkscape:vp_y="0 : 1000 : 0"
       inkscape:vp_x="0 : 0.5 : 1"
       sodipodi:type="inkscape:persp3d" />
    <inkscape:perspective
       id="perspective3841"
       inkscape:persp3d-origin="0.5 : 0.33333333 : 1"
       inkscape:vp_z="1 : 0.5 : 1"
       inkscape:vp_y="0 : 1000 : 0"
       inkscape:vp_x="0 : 0.5 : 1"
       sodipodi:type="inkscape:persp3d" />
    <inkscape:perspective
       id="perspective3893"
       inkscape:persp3d-origin="0.5 : 0.33333333 : 1"
       inkscape:vp_z="1 : 0.5 : 1"
       inkscape:vp_y="0 : 1000 : 0"
       inkscape:vp_x="0 : 0.5 : 1"
       sodipodi:type="inkscape:persp3d" />
    <inkscape:perspective
       id="perspective4039"
       inkscape:persp3d-origin="0.5 : 0.33333333 : 1"
       inkscape:vp_z="1 : 0.5 : 1"
       inkscape:vp_y="0 : 1000 : 0"
       inkscape:vp_x="0 : 0.5 : 1"
       sodipodi:type="inkscape:persp3d" />
  </defs>
  <sodipodi:namedview
     id="base"
     pagecolor="#ffffff"
     bordercolor="#666666"
     borderopacity="1.0"
     inkscape:pageopacity="0.0"
     inkscape:pageshadow="2"
     inkscape:zoom="7.9195959"
     inkscape:cx="245.44287"
     inkscape:cy="611.95851"
     inkscape:document-units="px"
     inkscape:current-layer="layer1"
     showgrid="false"
     inkscape:window-width="1440"
     inkscape:window-height="827"
     inkscape:window-x="0"
     inkscape:window-y="25"
     inkscape:window-maximized="1" />
  <metadata
     id="metadata2981">
    <rdf:RDF>
      <cc:Work
         rdf:about="">
        <dc:format>image/svg+xml</dc:format>
        <dc:type
           rdf:resource="http://purl.org/dc/dcmitype/StillImage" />
        <dc:title></dc:title>
      </cc:Work>
    </rdf:RDF>
  </metadata>
  <g
     inkscape:label="Camada 1"
     inkscape:groupmode="layer"
     id="layer1">
    <g
       id="g3796"
       style="stroke:none;stroke-opacity:1"
       transform="matrix(0.99953235,0,0,1.0000053,0.09984552,-0.00227702)"
       inkscape:export-filename="/home/wesley/workspace/StocksWizard/img/ifr_40x45.png"
       inkscape:export-xdpi="90"
       inkscape:export-ydpi="90">
      <rect
         y="410.79074"
         x="213.24998"
         height="45"
         width="40"
         id="rect3020"
         style="fill:none;stroke:none;stroke-opacity:1" />
      <rect
         y="410.80951"
         x="213.26846"
         height="3"
         width="40"
         id="rect3794"
         style="fill:none;stroke:none;stroke-opacity:1" />
    </g>
    <text
       inkscape:export-ydpi="90"
       inkscape:export-xdpi="90"
       inkscape:export-filename="/home/wesley/path5534.png"
       xml:space="preserve"
       style="font-size:40px;font-style:normal;font-weight:normal;fill:#000000;fill-opacity:1;stroke:none;font-family:Bitstream Vera Sans"
       x="216.45383"
       y="425.23431"
       id="text5558"><tspan
         sodipodi:role="line"
         id="tspan5560"
         x="216.45383"
         y="425.23431"
         style="font-size:15px">MAC</tspan></text>
    <path
       style="fill:none;stroke:#000000;stroke-width:1px;stroke-linecap:butt;stroke-linejoin:miter;stroke-opacity:1"
       d="m 215.22562,443.29701 36.36549,0"
       id="path5572"
       inkscape:export-filename="/home/wesley/path5534.png"
       inkscape:export-xdpi="90"
       inkscape:export-ydpi="90" />
    <path
       style="fill:none;stroke:#000000;stroke-width:1px;stroke-linecap:butt;stroke-linejoin:miter;stroke-opacity:1"
       d="m 215.98324,439.6352 0,3.6618"
       id="path5576"
       inkscape:export-filename="/home/wesley/path5534.png"
       inkscape:export-xdpi="90"
       inkscape:export-ydpi="90" />
    <path
       style="fill:none;stroke:#000000;stroke-width:1px;stroke-linecap:butt;stroke-linejoin:miter;stroke-opacity:1"
       d="m 217.62473,437.74117 0,5.6821"
       id="path5578"
       inkscape:export-filename="/home/wesley/path5534.png"
       inkscape:export-xdpi="90"
       inkscape:export-ydpi="90" />
    <path
       style="fill:none;stroke:#000000;stroke-width:1px;stroke-linecap:butt;stroke-linejoin:miter;stroke-opacity:1"
       d="m 219.3925,443.297 0,-7.57614"
       id="path5582"
       inkscape:export-filename="/home/wesley/path5534.png"
       inkscape:export-xdpi="90"
       inkscape:export-ydpi="90" />
    <path
       style="fill:none;stroke:#000000;stroke-width:1px;stroke-linecap:butt;stroke-linejoin:miter;stroke-opacity:1"
       d="m 221.16027,443.297 0,-7.07106"
       id="path5588"
       inkscape:export-filename="/home/wesley/path5534.png"
       inkscape:export-xdpi="90"
       inkscape:export-ydpi="90" />
    <path
       style="fill:none;stroke:#000000;stroke-width:1px;stroke-linecap:butt;stroke-linejoin:miter;stroke-opacity:1"
       d="m 222.80177,443.42327 0,-5.80837"
       id="path5592"
       inkscape:export-filename="/home/wesley/path5534.png"
       inkscape:export-xdpi="90"
       inkscape:export-ydpi="90" />
    <path
       style="fill:none;stroke:#000000;stroke-width:1px;stroke-linecap:butt;stroke-linejoin:miter;stroke-opacity:1"
       d="m 224.44326,443.297 0,-4.41941"
       id="path5600"
       inkscape:export-filename="/home/wesley/path5534.png"
       inkscape:export-xdpi="90"
       inkscape:export-ydpi="90" />
    <path
       style="fill:none;stroke:#000000;stroke-width:1px;stroke-linecap:butt;stroke-linejoin:miter;stroke-opacity:1"
       d="m 226.08476,443.297 0,-3.40926"
       id="path5604"
       inkscape:export-filename="/home/wesley/path5534.png"
       inkscape:export-xdpi="90"
       inkscape:export-ydpi="90" />
    <path
       style="fill:none;stroke:#000000;stroke-width:1px;stroke-linecap:butt;stroke-linejoin:miter;stroke-opacity:1"
       d="m 227.72626,443.17074 0,-2.27285"
       id="path5608"
       inkscape:export-filename="/home/wesley/path5534.png"
       inkscape:export-xdpi="90"
       inkscape:export-ydpi="90" />
    <path
       id="path5610"
       d="m 229.47372,443.26719 0,-1.83441"
       style="fill:none;stroke:#000000;stroke-width:0.89838529px;stroke-linecap:butt;stroke-linejoin:miter;stroke-opacity:1"
       inkscape:export-filename="/home/wesley/path5534.png"
       inkscape:export-xdpi="90"
       inkscape:export-ydpi="90" />
    <path
       id="path5612"
       d="m 234.61459,447.50893 0,-3.6618"
       style="fill:none;stroke:#000000;stroke-width:1px;stroke-linecap:butt;stroke-linejoin:miter;stroke-opacity:1"
       inkscape:export-filename="/home/wesley/path5534.png"
       inkscape:export-xdpi="90"
       inkscape:export-ydpi="90" />
    <path
       id="path5614"
       d="m 236.25608,449.40296 0,-5.6821"
       style="fill:none;stroke:#000000;stroke-width:1px;stroke-linecap:butt;stroke-linejoin:miter;stroke-opacity:1"
       inkscape:export-filename="/home/wesley/path5534.png"
       inkscape:export-xdpi="90"
       inkscape:export-ydpi="90" />
    <path
       id="path5616"
       d="m 238.02385,443.84713 0,7.57614"
       style="fill:none;stroke:#000000;stroke-width:1px;stroke-linecap:butt;stroke-linejoin:miter;stroke-opacity:1"
       inkscape:export-filename="/home/wesley/path5534.png"
       inkscape:export-xdpi="90"
       inkscape:export-ydpi="90" />
    <path
       id="path5618"
       d="m 239.79162,443.84713 0,7.07106"
       style="fill:none;stroke:#000000;stroke-width:1px;stroke-linecap:butt;stroke-linejoin:miter;stroke-opacity:1"
       inkscape:export-filename="/home/wesley/path5534.png"
       inkscape:export-xdpi="90"
       inkscape:export-ydpi="90" />
    <path
       id="path5620"
       d="m 241.43312,443.72086 0,5.80837"
       style="fill:none;stroke:#000000;stroke-width:1px;stroke-linecap:butt;stroke-linejoin:miter;stroke-opacity:1"
       inkscape:export-filename="/home/wesley/path5534.png"
       inkscape:export-xdpi="90"
       inkscape:export-ydpi="90" />
    <path
       id="path5622"
       d="m 243.07461,443.84713 0,4.41941"
       style="fill:none;stroke:#000000;stroke-width:1px;stroke-linecap:butt;stroke-linejoin:miter;stroke-opacity:1"
       inkscape:export-filename="/home/wesley/path5534.png"
       inkscape:export-xdpi="90"
       inkscape:export-ydpi="90" />
    <path
       id="path5624"
       d="m 244.71611,443.84713 0,3.40926"
       style="fill:none;stroke:#000000;stroke-width:1px;stroke-linecap:butt;stroke-linejoin:miter;stroke-opacity:1"
       inkscape:export-filename="/home/wesley/path5534.png"
       inkscape:export-xdpi="90"
       inkscape:export-ydpi="90" />
    <path
       id="path5626"
       d="m 246.35761,443.97339 0,2.27285"
       style="fill:none;stroke:#000000;stroke-width:1px;stroke-linecap:butt;stroke-linejoin:miter;stroke-opacity:1"
       inkscape:export-filename="/home/wesley/path5534.png"
       inkscape:export-xdpi="90"
       inkscape:export-ydpi="90" />
    <path
       style="fill:none;stroke:#000000;stroke-width:0.89838529px;stroke-linecap:butt;stroke-linejoin:miter;stroke-opacity:1"
       d="m 248.10507,443.87694 0,1.83441"
       id="path5628"
       inkscape:export-filename="/home/wesley/path5534.png"
       inkscape:export-xdpi="90"
       inkscape:export-ydpi="90" />
    <path
       style="fill:none;stroke:#000000;stroke-width:1px;stroke-linecap:butt;stroke-linejoin:miter;stroke-opacity:1"
       d="m 231.26179,443.297 0,1.89404"
       id="path5630"
       inkscape:export-filename="/home/wesley/path5534.png"
       inkscape:export-xdpi="90"
       inkscape:export-ydpi="90" />
    <path
       style="fill:none;stroke:#000000;stroke-width:1px;stroke-linecap:butt;stroke-linejoin:miter;stroke-opacity:1"
       d="m 232.90329,443.17074 0,2.90418"
       id="path5632"
       inkscape:export-filename="/home/wesley/path5534.png"
       inkscape:export-xdpi="90"
       inkscape:export-ydpi="90" />
    <path
       style="fill:none;stroke:#326496;stroke-width:0.94017738px;stroke-linecap:butt;stroke-linejoin:miter;stroke-opacity:1"
       d="m 215.95333,437.59821 c 0.25502,-0.29053 -0.0469,0.0802 0.22244,-0.38013 0.0581,-0.0995 0.14831,-0.16895 0.22246,-0.25342 0.11123,-0.1267 0.22246,-0.25342 0.33368,-0.38013 0.14831,-0.16893 0.29661,-0.33787 0.44491,-0.50683 0.0371,-0.0422 0.0675,-0.0935 0.11122,-0.1267 0.40403,-0.30685 0.0787,0.0371 0.33368,-0.25343 0.18539,-0.21117 0.37076,-0.42235 0.55613,-0.63353 0.0741,-0.0845 0.13254,-0.19195 0.22245,-0.25341 0.10055,-0.0688 0.22881,-0.067 0.33369,-0.12672 0.0938,-0.0533 0.12297,-0.21563 0.22245,-0.25341 0.0703,-0.0267 0.15211,0.0267 0.22246,0 0.0995,-0.0378 0.12866,-0.2 0.22245,-0.25343 0.0331,-0.0188 0.0752,0.0102 0.11123,0 0.11373,-0.0324 0.22881,-0.067 0.33367,-0.1267 0.0469,-0.0267 0.0643,-0.1 0.11123,-0.12671 0.0331,-0.0188 0.0741,0 0.11123,0 0.11123,0 0.22577,0.0307 0.33368,0 0.0508,-0.0144 0.0643,-0.1 0.11122,-0.12671 0.0331,-0.0188 0.62057,0 0.66736,0 0.25953,0 0.51906,0 0.77859,0 0.0741,0 0.1521,-0.0267 0.22245,0 0.0787,0.0299 0.14381,0.0968 0.22246,0.12671 0.0703,0.0267 0.16075,-0.0468 0.22245,0 0.0872,0.0663 0.12865,0.19999 0.22245,0.25341 0.0664,0.0378 0.15211,-0.0267 0.22246,0 0.0498,0.0189 0.0675,0.0937 0.11121,0.12672 0.20535,0.15595 0.46203,0.22417 0.66737,0.38012 0.0873,0.0663 0.12866,0.2 0.22245,0.25342 0.10486,0.0598 0.22246,0.0845 0.33368,0.12671 0.11123,0.0422 0.21871,0.10052 0.33368,0.1267 0.0727,0.0165 0.15613,-0.0377 0.22245,0 0.72428,0.41256 -0.22172,0.12699 0.44491,0.38013 0.0352,0.0133 0.0761,-0.0133 0.11123,0 0.0787,0.0299 0.14202,0.1038 0.22245,0.1267 0.072,0.0205 0.15211,-0.0267 0.22246,0 0.0498,0.0188 0.0741,0.0845 0.11121,0.12672 0.0741,0.0845 0.13521,0.18715 0.22246,0.25341 0.0308,0.0235 0.078,-0.0189 0.11123,0 0.0469,0.0267 0.0643,0.10009 0.11123,0.12671 0.0663,0.0377 0.15051,-0.0205 0.22245,0 0.11374,0.0324 0.22881,0.067 0.33368,0.12672 0.0469,0.0267 0.0675,0.0936 0.11122,0.1267 0.069,0.0524 0.15347,0.0744 0.22246,0.1267 0.0873,0.0663 0.12866,0.2 0.22245,0.25343 0.0664,0.0378 0.15211,-0.0267 0.22246,0 0.80566,0.30593 -0.17537,-0.0365 0.33367,0.25341 0.0332,0.0188 0.0804,-0.0234 0.11122,0 0.0873,0.0662 0.13521,0.18715 0.22246,0.25342 0.0308,0.0234 0.078,-0.0188 0.11123,0 0.0594,0.0338 0.27512,0.31342 0.33368,0.38013 0.11123,0.1267 0.22245,0.25341 0.33368,0.38011 0.0371,0.0422 0.0676,0.0935 0.11123,0.12672 0.13795,0.10477 0.30694,0.14864 0.4449,0.25341 0.0873,0.0663 0.1483,0.16894 0.22246,0.25343 0.11123,0.1267 0.22245,0.25341 0.33367,0.38012 0.0741,0.0845 0.1483,0.16894 0.22245,0.25341 0.0371,0.0422 0.0877,0.0733 0.11123,0.12671 0.0524,0.11946 0.0588,0.26067 0.11123,0.38013 0.0469,0.10685 0.18929,0.14008 0.22245,0.25341 0.0234,0.0802 -0.0332,0.17786 0,0.25342 0.0469,0.10685 0.14831,0.16895 0.22246,0.25341 0.0741,0.0845 0.1483,0.16895 0.22245,0.25342 0.0868,0.099 0.26969,0.27079 0.33367,0.38013 0.046,0.0786 0.0653,0.17484 0.11123,0.25341 0.0581,0.0995 0.17556,0.14658 0.22246,0.25343 0.0166,0.0377 -0.0166,0.0889 0,0.1267 0.0234,0.0534 0.0947,0.0701 0.11123,0.1267 0.0234,0.0802 -0.0234,0.17329 0,0.25342 0.0166,0.0567 0.0821,0.077 0.11123,0.12671 0.0459,0.0786 0.0653,0.17484 0.11122,0.25342 0.0291,0.0497 0.0741,0.0845 0.11123,0.12671 0.0371,0.0422 0.0822,0.077 0.11122,0.12671 0.0459,0.0786 0.085,0.16381 0.11122,0.25342 0.0117,0.04 -0.0222,0.0929 0,0.1267 0.12584,0.19114 0.29661,0.33788 0.44491,0.50683 0.0371,0.0422 0.0822,0.077 0.11123,0.12671 0.0459,0.0786 0.0614,0.17787 0.11123,0.25342 0.0358,0.0543 0.41118,0.43001 0.44489,0.50683 0.0166,0.0377 -0.0166,0.0889 0,0.12671 0.0234,0.0533 0.0822,0.077 0.11123,0.1267 0.046,0.0786 0.0653,0.17484 0.11123,0.25343 0.0547,0.0936 0.16766,0.15978 0.22246,0.25341 0.0459,0.0786 0.0422,0.20103 0.11123,0.25342 0.0616,0.0468 0.15211,-0.0267 0.22245,0 0.0498,0.0189 0.0741,0.0845 0.11123,0.12671 0.0371,0.0422 0.0741,0.0845 0.11122,0.12671 0.0741,0.0845 0.1352,0.18715 0.22245,0.25341 0.069,0.0523 0.15347,0.0744 0.22245,0.12671 0.0873,0.0662 0.12866,0.19999 0.22246,0.25341 0.10486,0.0598 0.22881,0.0671 0.33369,0.12672 0.10944,0.0623 0.33544,0.44448 0.44489,0.50683 0.0332,0.0188 0.078,-0.0188 0.11123,0 0.0469,0.0267 0.0741,0.0845 0.11123,0.12671 0.11122,0.1267 0.22245,0.25341 0.33368,0.38012 0.0371,0.0422 0.0675,0.0935 0.11123,0.12671 0.069,0.0523 0.15347,0.0744 0.22245,0.1267 0.10125,0.0769 0.2351,0.32398 0.33367,0.38014 0.0332,0.0188 0.0781,-0.0188 0.11123,0 0.10946,0.0623 0.33546,0.44449 0.44491,0.50682 0.0332,0.0189 0.078,-0.0188 0.11123,0 0.0469,0.0267 0.0675,0.0937 0.11122,0.12671 0.13795,0.10478 0.30695,0.14864 0.44491,0.25342 0.0873,0.0663 0.1352,0.18715 0.22245,0.25342 0.13796,0.10477 0.30694,0.14864 0.44491,0.25342 0.0873,0.0662 0.1352,0.18715 0.22245,0.25341 0.56189,0.42673 0.003,9.8e-4 0.33368,0.12671 0.0787,0.0299 0.14381,0.0968 0.22246,0.12671 0.0352,0.0133 0.078,-0.0188 0.11122,0 0.0469,0.0267 0.0643,0.1 0.11123,0.1267 0.0331,0.0188 0.0741,0 0.11122,0 0.0741,0 0.15613,-0.0377 0.22246,0 0.0938,0.0533 0.1483,0.16894 0.22244,0.25343 0.0371,0.0422 0.0614,0.10782 0.11123,0.1267 0.0703,0.0267 0.15211,-0.0267 0.22246,0 0.0498,0.0188 0.0643,0.1 0.11123,0.12671 0.0664,0.0378 0.15211,-0.0267 0.22244,0 0.0787,0.0299 0.14381,0.0969 0.22246,0.12671 0.0704,0.0267 0.1483,0 0.22246,0 0.18537,0 0.37075,0 0.55613,0 0.59321,0 1.18641,0 1.77963,0 0.25952,0 0.51905,0 0.77858,0 0.0731,0 0.27093,0.0239 0.33368,0 0.0787,-0.0299 0.14381,-0.0968 0.22245,-0.12671 0.0352,-0.0133 0.0804,0.0234 0.11123,0 0.0873,-0.0663 0.12866,-0.19999 0.22245,-0.25341 0.0664,-0.0378 0.1521,0.0267 0.22245,0 0.0498,-0.0189 0.0643,-0.10009 0.11123,-0.12672 0.0332,-0.0188 0.0741,0 0.11123,0 0.0371,-0.0422 0.0675,-0.0936 0.11122,-0.12671 0.069,-0.0523 0.14381,-0.0968 0.22246,-0.1267 0.0352,-0.0133 0.0803,0.0234 0.11122,0 0.0873,-0.0663 0.1483,-0.16895 0.22246,-0.25342 0.0371,-0.0422 0.0643,-0.1 0.11122,-0.1267 0.0332,-0.0188 0.078,0.0188 0.11122,0 0.0398,-0.0227 0.41408,-0.45415 0.44492,-0.50684 0.26934,-0.46027 -0.0326,-0.0896 0.22245,-0.38013 0.0935,-0.10649 0.63132,-0.67814 0.66736,-0.76024 0.0166,-0.0378 -0.0166,-0.0889 0,-0.12671 0.0469,-0.10686 0.18928,-0.14009 0.22245,-0.25342 0.0234,-0.0802 -0.0331,-0.17786 0,-0.25342 0.0547,-0.12468 0.39018,-0.38215 0.44491,-0.50683 0.0166,-0.0377 -0.0166,-0.0889 0,-0.12671 0.0234,-0.0533 0.0741,-0.0845 0.11121,-0.12671 0.0741,-0.0845 0.14832,-0.16894 0.22246,-0.25342 0.25504,-0.29051 -0.0469,0.0802 0.22246,-0.38012 0.0856,-0.1462 0.24812,-0.23393 0.33368,-0.38012 0.0205,-0.0351 -0.0117,-0.0866 0,-0.12671 0.0263,-0.0896 0.0653,-0.17483 0.11123,-0.25342 0.0581,-0.0995 0.17555,-0.14656 0.22244,-0.25341 0.0166,-0.0378 -0.0166,-0.0889 0,-0.12672 0.0234,-0.0533 0.0741,-0.0845 0.11123,-0.12671 0.0371,-0.0422 0.0741,-0.0845 0.11123,-0.1267"
       id="path5638"
       inkscape:export-filename="/home/wesley/path5534.png"
       inkscape:export-xdpi="90"
       inkscape:export-ydpi="90" />
    <path
       style="fill:none;stroke:#966432;stroke-width:0.93547547px;stroke-linecap:butt;stroke-linejoin:miter;stroke-opacity:1"
       d="m 215.12597,433.80174 c 0.22001,0 0.44001,0 0.66001,0 0.0367,0 0.0772,0.0189 0.11001,0 0.0463,-0.0267 0.0636,-0.10005 0.11,-0.12684 0.0328,-0.0189 0.0734,0 0.11,0 0.0734,0 0.14667,0 0.22001,0 0.18334,0 0.36668,0 0.55001,0 0.0496,0 0.29653,-0.0193 0.33001,0 0.0463,0.0267 0.0636,0.10005 0.11001,0.12684 0.0327,0.0189 0.0733,0 0.11,0 0.0367,0 0.0734,0 0.11,0 0.18334,0 0.36668,0 0.55001,0 0.0367,0 0.0772,-0.0189 0.11001,0 0.0463,0.0267 0.0608,0.10793 0.11,0.12684 0.0696,0.0267 0.15044,-0.0267 0.22001,0 0.0492,0.0189 0.0636,0.10005 0.11,0.12684 0.0328,0.0189 0.0752,-0.0134 0.11001,0 0.0778,0.0299 0.14222,0.0969 0.22,0.12684 0.0348,0.0134 0.0772,-0.0189 0.11001,0 0.10824,0.0624 0.33176,0.44495 0.44,0.50735 0.0328,0.0189 0.0772,-0.0189 0.11001,0 0.0211,0.0122 0.42948,0.48308 0.44001,0.50736 0.0164,0.0378 -0.0204,0.0917 0,0.12684 0.0725,0.12532 0.42735,0.49277 0.55001,0.6342 0.11001,0.12683 0.22001,0.25367 0.33002,0.38051 0.0733,0.0846 0.1337,0.18736 0.22,0.25368 0.13645,0.10489 0.30357,0.1488 0.44001,0.25369 0.0431,0.0331 0.0668,0.0936 0.11,0.12684 0.0682,0.0524 0.15179,0.0744 0.22001,0.12684 0.0863,0.0663 0.12725,0.2002 0.22001,0.25368 0.10371,0.0598 0.2263,0.067 0.33001,0.12683 0.10824,0.0624 0.33176,0.44495 0.44001,0.50736 0.0328,0.0189 0.0772,-0.0189 0.11,0 0.10824,0.0624 0.33177,0.44495 0.44002,0.50736 0.0327,0.0189 0.0772,-0.0189 0.11,0 0.10824,0.0624 0.33176,0.44495 0.44001,0.50735 0.0327,0.0189 0.0772,-0.0189 0.11,0 0.50345,0.29026 -0.46679,-0.0525 0.33001,0.25368 0.0348,0.0134 0.0772,-0.0189 0.11001,0 0.0463,0.0267 0.0733,0.0846 0.11,0.12684 0.0367,0.0423 0.0734,0.0846 0.11,0.12684 0.14667,0.16912 0.29334,0.33824 0.44001,0.50736 0.0647,0.0746 0.38908,0.47799 0.44001,0.50736 0.0328,0.0189 0.0772,-0.0189 0.11001,0 0.0463,0.0267 0.0734,0.0846 0.11,0.12684 0.0367,0.0423 0.0734,0.0846 0.11001,0.12684 0.25221,0.29081 -0.0696,-0.0534 0.33,0.25368 0.0431,0.0331 0.0636,0.10005 0.11,0.12684 0.0328,0.0189 0.0772,-0.0189 0.11001,0 0.13201,0.0761 0.19801,0.30441 0.33001,0.38051 0.0328,0.0189 0.0752,-0.0134 0.11,0 0.0778,0.0299 0.14222,0.0969 0.22001,0.12684 0.0348,0.0134 0.0772,-0.0189 0.11,0 0.0463,0.0267 0.0636,0.10005 0.11,0.12684 0.0328,0.0189 0.0772,-0.0189 0.11,0 0.0928,0.0534 0.13372,0.18735 0.22001,0.25368 0.0682,0.0524 0.15178,0.0744 0.22001,0.12684 0.0431,0.0331 0.0636,0.10005 0.11,0.12684 0.0328,0.0189 0.0772,-0.0189 0.11,0 0.0463,0.0267 0.0636,0.10005 0.11001,0.12684 0.088,0.0507 0.242,-0.0507 0.33,0 0.0928,0.0534 0.12725,0.2002 0.22001,0.25368 0.088,0.0507 0.242,-0.0507 0.33001,0 0.0463,0.0267 0.0734,0.0846 0.11,0.12684 0.0734,0 0.15044,-0.0267 0.22001,0 0.0492,0.0189 0.0636,0.10005 0.11001,0.12683 0.0327,0.0189 0.0772,-0.0189 0.11,0 0.0464,0.0267 0.0608,0.10794 0.10999,0.12684 0.0696,0.0267 0.15044,-0.0267 0.22001,0 0.0984,0.0379 0.12725,0.2002 0.22001,0.25368 0.0328,0.0189 0.0734,0 0.11,0 0.0734,0 0.15044,-0.0267 0.22001,0 0.0492,0.0189 0.0636,0.10005 0.11,0.12684 0.049,0.0282 0.3897,-0.0193 0.44001,0 0.0492,0.0189 0.0636,0.10005 0.11,0.12684 0.0329,0.0189 0.0772,-0.0189 0.11001,0 0.0463,0.0267 0.0608,0.10794 0.11,0.12684 0.0696,0.0267 0.14667,0 0.22001,0 0.0367,0 0.0772,-0.0189 0.11,0 0.0928,0.0534 0.12162,0.21586 0.22001,0.25368 0.0696,0.0267 0.14666,0 0.22,0 0.0367,0 0.0772,-0.0189 0.11,0 0.0928,0.0534 0.12162,0.21587 0.22001,0.25368 0.0748,0.0287 0.49169,-0.0337 0.55002,0 0.0463,0.0267 0.0636,0.10005 0.11,0.12684 0.35183,0.20284 -0.13182,-0.20284 0.22,0 0.0928,0.0534 0.12162,0.21587 0.22001,0.25368 0.0696,0.0267 0.15044,-0.0267 0.22001,0 0.0492,0.0189 0.0636,0.10005 0.11,0.12684 0.0656,0.0378 0.15441,-0.0378 0.22001,0 0.0464,0.0267 0.0636,0.10005 0.11,0.12684 0.0692,0.0399 0.37087,-0.0399 0.44001,0 0.0463,0.0267 0.0636,0.10005 0.11,0.12684 0.0656,0.0378 0.15899,-0.0469 0.22001,0 0.0863,0.0663 0.12725,0.2002 0.22001,0.25368 0.088,0.0507 0.242,-0.0507 0.33,0 0.0463,0.0267 0.0636,0.10005 0.11001,0.12684 0.0692,0.0399 0.37087,-0.0399 0.44001,0 0.0464,0.0267 0.0636,0.10005 0.11,0.12684 0.0328,0.0189 0.0734,0 0.11001,0 0.0734,0 0.15043,-0.0267 0.22001,0 0.0492,0.0189 0.0636,0.10005 0.11,0.12683 0.0328,0.0189 0.0772,-0.0189 0.11,0 0.0928,0.0534 0.12724,0.2002 0.22,0.25368 0.0328,0.0189 0.0752,-0.0134 0.11001,0 0.15556,0.0598 0.28445,0.19389 0.44001,0.25368 0.0348,0.0134 0.0733,0 0.11001,0 0.0734,0.0423 0.14222,0.0969 0.22,0.12684 0.0348,0.0134 0.0772,-0.0189 0.11,0 0.13201,0.0761 0.19801,0.30442 0.33001,0.38052 0.0328,0.0189 0.0772,-0.0189 0.11,0 0.0463,0.0267 0.0608,0.10793 0.11001,0.12684 0.0696,0.0267 0.15043,-0.0267 0.22,0 0.0492,0.0189 0.0636,0.10005 0.11001,0.12684 0.35182,0.20283 -0.13183,-0.20284 0.22001,0 0.0927,0.0534 0.12723,0.20019 0.22,0.25367 0.0328,0.0189 0.0772,-0.0189 0.11,0 0.0463,0.0267 0.0636,0.10005 0.11,0.12684 0.10372,0.0598 0.21752,0.0944 0.33001,0.12684 0.0712,0.0205 0.15441,-0.0378 0.22001,0 0.0463,0.0267 0.0608,0.10794 0.11001,0.12684 0.0911,0.0351 0.48005,-0.0404 0.55001,0 0.46952,0.27069 -0.24952,-0.017 0.22,0.25369 0.35184,0.20284 -0.13182,-0.20285 0.22001,0 0.0463,0.0267 0.0608,0.10792 0.11,0.12684 0.11689,0.0449 0.32313,-0.0449 0.44001,0 0.37921,0.14574 0.0815,0.12684 0.33001,0.12684 1.21004,0 2.42007,0 3.6301,0 0.33001,0 0.66002,0 0.99003,0 0.0709,0 0.41638,0.0182 0.44001,0 0.0863,-0.0663 0.13371,-0.18736 0.22001,-0.25368 0.061,-0.0469 0.15441,0.0378 0.22,0 0.0463,-0.0267 0.0636,-0.10005 0.11,-0.12685 0.0329,-0.0189 0.0772,0.0189 0.11001,0 0.0463,-0.0267 0.0608,-0.10793 0.11,-0.12684 0.0696,-0.0267 0.15044,0.0267 0.22001,0 0.0492,-0.0189 0.0636,-0.10005 0.11,-0.12684 0.0328,-0.0189 0.0772,0.0189 0.11001,0 0.0928,-0.0534 0.1337,-0.18734 0.21999,-0.25368 0.0682,-0.0524 0.15179,-0.0744 0.22001,-0.12684 0.25173,-0.19349 -0.0688,-0.10045 0.33001,-0.25367 0.0348,-0.0134 0.0772,0.0189 0.11001,0 0.10824,-0.0624 0.33176,-0.44495 0.44001,-0.50736 0.0328,-0.0189 0.0772,0.0189 0.11,0 0.0463,-0.0267 0.0636,-0.10005 0.11,-0.12684 0.0328,-0.0189 0.0734,0 0.11001,0 0.15956,0 0.34982,0.0812 0.44001,-0.12684 0.0167,-0.0386 0,-0.32339 0,-0.38052"
       id="path5646"
       inkscape:export-filename="/home/wesley/path5534.png"
       inkscape:export-xdpi="90"
       inkscape:export-ydpi="90" />
  </g>
</svg>
