<?xml version="1.0" encoding="UTF-8" standalone="no"?>
<!-- Created with Inkscape (http://www.inkscape.org/) -->

<svg
   xmlns:dc="http://purl.org/dc/elements/1.1/"
   xmlns:cc="http://creativecommons.org/ns#"
   xmlns:rdf="http://www.w3.org/1999/02/22-rdf-syntax-ns#"
   xmlns:svg="http://www.w3.org/2000/svg"
   xmlns="http://www.w3.org/2000/svg"
   xmlns:sodipodi="http://sodipodi.sourceforge.net/DTD/sodipodi-0.dtd"
   xmlns:inkscape="http://www.inkscape.org/namespaces/inkscape"
   width="210mm"
   height="297mm"
   id="svg2976"
   version="1.1"
   inkscape:version="0.48.4 r9939"
   sodipodi:docname="pds.svg">
  <defs
     id="defs2978">
    <inkscape:perspective
       sodipodi:type="inkscape:persp3d"
       inkscape:vp_x="0 : 526.18109 : 1"
       inkscape:vp_y="0 : 1000 : 0"
       inkscape:vp_z="744.09448 : 526.18109 : 1"
       inkscape:persp3d-origin="372.04724 : 350.78739 : 1"
       id="perspective2984" />
    <inkscape:perspective
       id="perspective2994"
       inkscape:persp3d-origin="0.5 : 0.33333333 : 1"
       inkscape:vp_z="1 : 0.5 : 1"
       inkscape:vp_y="0 : 1000 : 0"
       inkscape:vp_x="0 : 0.5 : 1"
       sodipodi:type="inkscape:persp3d" />
    <inkscape:perspective
       id="perspective3979"
       inkscape:persp3d-origin="0.5 : 0.33333333 : 1"
       inkscape:vp_z="1 : 0.5 : 1"
       inkscape:vp_y="0 : 1000 : 0"
       inkscape:vp_x="0 : 0.5 : 1"
       sodipodi:type="inkscape:persp3d" />
    <inkscape:perspective
       id="perspective3783"
       inkscape:persp3d-origin="0.5 : 0.33333333 : 1"
       inkscape:vp_z="1 : 0.5 : 1"
       inkscape:vp_y="0 : 1000 : 0"
       inkscape:vp_x="0 : 0.5 : 1"
       sodipodi:type="inkscape:persp3d" />
    <inkscape:perspective
       id="perspective3841"
       inkscape:persp3d-origin="0.5 : 0.33333333 : 1"
       inkscape:vp_z="1 : 0.5 : 1"
       inkscape:vp_y="0 : 1000 : 0"
       inkscape:vp_x="0 : 0.5 : 1"
       sodipodi:type="inkscape:persp3d" />
  </defs>
  <sodipodi:namedview
     id="base"
     pagecolor="#ffffff"
     bordercolor="#666666"
     borderopacity="1.0"
     inkscape:pageopacity="0.0"
     inkscape:pageshadow="2"
     inkscape:zoom="7.9195959"
     inkscape:cx="231.79509"
     inkscape:cy="611.91263"
     inkscape:document-units="px"
     inkscape:current-layer="layer1"
     showgrid="false"
     inkscape:window-width="1366"
     inkscape:window-height="706"
     inkscape:window-x="-8"
     inkscape:window-y="-8"
     inkscape:window-maximized="1" />
  <metadata
     id="metadata2981">
    <rdf:RDF>
      <cc:Work
         rdf:about="">
        <dc:format>image/svg+xml</dc:format>
        <dc:type
           rdf:resource="http://purl.org/dc/dcmitype/StillImage" />
        <dc:title></dc:title>
      </cc:Work>
    </rdf:RDF>
  </metadata>
  <g
     inkscape:label="Camada 1"
     inkscape:groupmode="layer"
     id="layer1">
    <g
       id="g3026"
       transform="matrix(-1,0,0,1,466.49066,0)"
       inkscape:export-filename="C:\Users\Wesley\workspace\StocksWizard\img\pds_40x45.png"
       inkscape:export-xdpi="90"
       inkscape:export-ydpi="90"
       style="fill:#ff0000;stroke:#ff0000">
      <rect
         ry="0"
         y="438.81778"
         x="215.98492"
         height="9.0217791"
         width="17.102116"
         id="rect3000"
         style="fill:#ff0000;fill-opacity:1;stroke:#ff0000;stroke-width:1.13101804;stroke-opacity:1" />
      <path
         transform="matrix(0.84928823,0,0,0.86628933,74.937824,72.754132)"
         inkscape:transform-center-x="-2.8781447"
         d="m 186.54017,439.7011 0,-23.47892 20.33334,11.73946 z"
         inkscape:randomized="0"
         inkscape:rounded="0"
         inkscape:flatsided="true"
         sodipodi:arg2="3.1415927"
         sodipodi:arg1="2.0943951"
         sodipodi:r2="6.7777796"
         sodipodi:r1="13.555559"
         sodipodi:cy="427.96164"
         sodipodi:cx="193.31795"
         sodipodi:sides="3"
         id="path3024"
         style="fill:#ff0000;fill-opacity:1;stroke:#ff0000;stroke-opacity:1"
         sodipodi:type="star" />
    </g>
    <g
       id="g3796"
       style="stroke:none;stroke-opacity:1"
       transform="matrix(0.99953235,0,0,1.0000053,0.09984552,-0.00227702)"
       inkscape:export-filename="C:\Users\Wesley\workspace\StocksWizard\img\pds_40x45.png"
       inkscape:export-xdpi="90"
       inkscape:export-ydpi="90">
      <rect
         y="410.79074"
         x="213.24998"
         height="45"
         width="40"
         id="rect3020"
         style="fill:none;stroke:none;stroke-opacity:1" />
      <rect
         y="410.80951"
         x="213.26846"
         height="3"
         width="40"
         id="rect3794"
         style="fill:none;stroke:none;stroke-opacity:1" />
    </g>
    <text
       inkscape:export-ydpi="90"
       inkscape:export-xdpi="90"
       inkscape:export-filename="C:\Users\Wesley\workspace\StocksWizard\img\pds_40x45.png"
       id="text5544"
       y="425.21695"
       x="217.63109"
       style="font-size:40px;font-style:normal;font-weight:normal;fill:#000000;fill-opacity:1;stroke:none;font-family:Bitstream Vera Sans"
       xml:space="preserve"><tspan
         style="font-size:15px"
         y="425.21695"
         x="217.63109"
         id="tspan5546"
         sodipodi:role="line">PDS</tspan></text>
  </g>
</svg>
